…
    ## See spec(...) for full column specifications.

``` r
mta_df
```

    ## # A tibble: 1,868 x 19
    ##    line  station_name station_latitude station_longitu~ route1 route2
    ##    <chr> <chr>                   <dbl>            <dbl> <chr>  <chr> 
    ##  1 4 Av~ 25th St                  40.7            -74.0 R      <NA>  
    ##  2 4 Av~ 25th St                  40.7            -74.0 R      <NA>  
    ##  3 4 Av~ 36th St                  40.7            -74.0 N      R     
    ##  4 4 Av~ 36th St                  40.7            -74.0 N      R     
    ##  5 4 Av~ 36th St                  40.7            -74.0 N      R     
    ##  6 4 Av~ 45th St                  40.6            -74.0 R      <NA>  
    ##  7 4 Av~ 45th St                  40.6            -74.0 R      <NA>  
    ##  8 4 Av~ 45th St                  40.6            -74.0 R      <NA>  
    ##  9 4 Av~ 45th St                  40.6            -74.0 R      <NA>  
    ## 10 4 Av~ 53rd St                  40.6            -74.0 R      <NA>  
    ## # ... with 1,858 more rows, and 13 more variables: route3 <chr>,
    ## #   route4 <chr>, route5 <chr>, route6 <chr>, route7 <chr>, route8 <int>,
    ## #   route9 <int>, route10 <int>, route11 <int>, entry <lgl>,
    ## #   vending <chr>, entrance_type <chr>, ada <lgl>
…
The resulting dataset is 1868 rows by 19 columns.

These data are not tidy because each row contain 2 pieces of information: how many routes are serviced at the particular station, and which routes are serviced. Someone could tell visually how many routes and which routes are serviced at a particular station, but determining that information in R is not as straightforward given how the data are currently formmated. The data could be tidied by making each row one route. The entry variable could also be reformatted from character to logical for ease of use in analysis.

Answering questions
-------------------

Only keeping distinct values of line and station\_name gives us a dataframe with 465 rows. There are 465 distinct stations.

``` r
distinct(mta_df, line, station_name, .keep_all = T)
```

    ## # A tibble: 465 x 19
    ##    line  station_name station_latitude station_longitu~ route1 route2
    ##    <chr> <chr>                   <dbl>            <dbl> <chr>  <chr> 
    ##  1 4 Av~ 25th St                  40.7            -74.0 R      <NA>  
    ##  2 4 Av~ 36th St                  40.7            -74.0 N      R     
    ##  3 4 Av~ 45th St                  40.6            -74.0 R      <NA>  
    ##  4 4 Av~ 53rd St                  40.6            -74.0 R      <NA>  
    ##  5 4 Av~ 59th St                  40.6            -74.0 N      R     
    ##  6 4 Av~ 77th St                  40.6            -74.0 R      <NA>  
    ##  7 4 Av~ 86th St                  40.6            -74.0 R      <NA>  
    ##  8 4 Av~ 95th St                  40.6            -74.0 R      <NA>  
    ##  9 4 Av~ 9th St                   40.7            -74.0 F      G     
    ## 10 4 Av~ Atlantic Av~             40.7            -74.0 B      Q     
    ## # ... with 455 more rows, and 13 more variables: route3 <chr>,
    ## #   route4 <chr>, route5 <chr>, route6 <chr>, route7 <chr>, route8 <int>,
    ## #   route9 <int>, route10 <int>, route11 <int>, entry <lgl>,
    ## #   vending <chr>, entrance_type <chr>, ada <lgl>

Keeping distinct values of line and station\_name plus filtering out stations which weren't ADA-compliant gives us a dataframe with 84 rows. 84 stations are ADA-compliant.

``` r
distinct(mta_df, line, station_name, .keep_all = T) %>% 
  filter(ada == T)
```

    ## # A tibble: 84 x 19
    ##    line  station_name station_latitude station_longitu~ route1 route2
    ##    <chr> <chr>                   <dbl>            <dbl> <chr>  <chr> 
    ##  1 4 Av~ Atlantic Av~             40.7            -74.0 B      Q     
    ##  2 4 Av~ DeKalb Av                40.7            -74.0 B      Q     
    ##  3 4 Av~ Pacific St               40.7            -74.0 B      Q     
    ##  4 42nd~ Grand Centr~             40.8            -74.0 GS     4     
    ##  5 6 Av~ 34th St                  40.7            -74.0 B      D     
    ##  6 6 Av~ 47-50th Sts~             40.8            -74.0 B      D     
    ##  7 6 Av~ Church Av                40.6            -74.0 F      <NA>  
    ##  8 63rd~ 21st St                  40.8            -73.9 F      <NA>  
    ##  9 63rd~ Lexington Av             40.8            -74.0 F      <NA>  
    ## 10 63rd~ Roosevelt I~             40.8            -74.0 F      <NA>  
    ## # ... with 74 more rows, and 13 more variables: route3 <chr>,
    ## #   route4 <chr>, route5 <chr>, route6 <chr>, route7 <chr>, route8 <int>,
    ## #   route9 <int>, route10 <int>, route11 <int>, entry <lgl>,
    ## #   vending <chr>, entrance_type <chr>, ada <lgl>

Filtering out observations for entrances/exits without vending gives us a dataset with 183 rows. There are 183 entrances/exits without vending.

``` r
filter(mta_df, vending == 'NO')
```

    ## # A tibble: 183 x 19
    ##    line  station_name station_latitude station_longitu~ route1 route2
    ##    <chr> <chr>                   <dbl>            <dbl> <chr>  <chr> 
    ##  1 4 Av~ 53rd St                  40.6            -74.0 R      <NA>  
    ##  2 4 Av~ 77th St                  40.6            -74.0 R      <NA>  
    ##  3 4 Av~ 9th St                   40.7            -74.0 F      G     
    ##  4 4 Av~ Bay Ridge Av             40.6            -74.0 R      <NA>  
    ##  5 42nd~ Grand Centr~             40.8            -74.0 GS     4     
    ##  6 42nd~ Grand Centr~             40.8            -74.0 GS     4     
    ##  7 6 Av~ 7th Av                   40.7            -74.0 F      <NA>  
    ##  8 6 Av~ 7th Av                   40.7            -74.0 F      <NA>  
    ##  9 6 Av~ 7th Av                   40.7            -74.0 F      <NA>  
    ## 10 6 Av~ 7th Av                   40.7            -74.0 F      <NA>  
    ## # ... with 173 more rows, and 13 more variables: route3 <chr>,
    ## #   route4 <chr>, route5 <chr>, route6 <chr>, route7 <chr>, route8 <int>,
    ## #   route9 <int>, route10 <int>, route11 <int>, entry <lgl>,
    ## #   vending <chr>, entrance_type <chr>, ada <lgl>

Filtering out entrances/exits without vending and no entry gives us a dataset with 69 rows. There are 69 entrances/exits without vending which allow entrance. Therefore, 69/183 or about 37.7% of station entrances/exits without vending allow entrance.

``` r
filter(mta_df, vending == 'NO', entry == T)
```

    ## # A tibble: 69 x 19
    ##    line  station_name station_latitude station_longitu~ route1 route2
    ##    <chr> <chr>                   <dbl>            <dbl> <chr>  <chr> 
    ##  1 4 Av~ 9th St                   40.7            -74.0 F      G     
    ##  2 6 Av~ 7th Av                   40.7            -74.0 F      <NA>  
    ##  3 6 Av~ 7th Av                   40.7            -74.0 F      <NA>  
    ##  4 6 Av~ 7th Av                   40.7            -74.0 F      <NA>  
    ##  5 6 Av~ 7th Av                   40.7            -74.0 F      <NA>  
    ##  6 6 Av~ 7th Av                   40.7            -74.0 F      <NA>  
    ##  7 6 Av~ 7th Av                   40.7            -74.0 F      <NA>  
    ##  8 6 Av~ 7th Av                   40.7            -74.0 F      <NA>  
    ##  9 6 Av~ 7th Av                   40.7            -74.0 F      <NA>  
    ## 10 6 Av~ Bergen St                40.7            -74.0 F      G     
    ## # ... with 59 more rows, and 13 more variables: route3 <chr>,
    ## #   route4 <chr>, route5 <chr>, route6 <chr>, route7 <chr>, route8 <int>,
    ## #   route9 <int>, route10 <int>, route11 <int>, entry <lgl>,
    ## #   vending <chr>, entrance_type <chr>, ada <lgl>

First, we gather the data so that each row corresponds to 1 route. Then we only keep the observations for the A route. Finally we keep distinct values of line and station\_name to give us a dataframe with 60 rows. 60 distinct stations service the A.

``` r
gather(mta_df, key = route_num, value = route_name, route1:route11) %>% 
  filter(route_name == 'A') %>% 
  distinct(line, station_name, .keep_all = T)
```

    ## # A tibble: 60 x 10
    ##    line  station_name station_latitude station_longitu~ entry vending
    ##    <chr> <chr>                   <dbl>            <dbl> <lgl> <chr>  
    ##  1 42nd~ Times Square             40.8            -74.0 TRUE  YES    
    ##  2 8 Av~ 125th St                 40.8            -74.0 TRUE  YES    
    ##  3 8 Av~ 145th St                 40.8            -73.9 TRUE  YES    
    ##  4 8 Av~ 14th St                  40.7            -74.0 TRUE  YES    
    ##  5 8 Av~ 168th St - ~             40.8            -73.9 TRUE  YES    
    ##  6 8 Av~ 175th St                 40.8            -73.9 TRUE  YES    
    ##  7 8 Av~ 181st St                 40.9            -73.9 TRUE  YES    
    ##  8 8 Av~ 190th St                 40.9            -73.9 TRUE  YES    
    ##  9 8 Av~ 34th St                  40.8            -74.0 TRUE  YES    
    ## 10 8 Av~ 42nd St                  40.8            -74.0 TRUE  YES    
    ## # ... with 50 more rows, and 4 more variables: entrance_type <chr>,
    ## #   ada <lgl>, route_num <chr>, route_name <chr>
…
First we read in the data. Then we clean the variable names, filter out rows which are not for specific dumpsters, and change the sports\_ball variable into integer.

``` r
trashwheel_df <- 
  readxl::read_excel('./Data/HealthyHarborWaterWheelTotals2017-9-26.xlsx', 
                     range = "A2:N258") %>% 
  janitor::clean_names() %>%
  filter(!is.na(dumpster)) %>% 
  mutate(sports_balls = as.integer(sports_balls))
  
trashwheel_df
```

    ## # A tibble: 215 x 14
    ##    dumpster month  year date                weight_tons volume_cubic_ya~
    ##       <dbl> <chr> <dbl> <dttm>                    <dbl>            <dbl>
    ##  1        1 May    2014 2014-05-16 00:00:00        4.31               18
    ##  2        2 May    2014 2014-05-16 00:00:00        2.74               13
    ##  3        3 May    2014 2014-05-16 00:00:00        3.45               15
    ##  4        4 May    2014 2014-05-17 00:00:00        3.1                15
    ##  5        5 May    2014 2014-05-17 00:00:00        4.06               18
    ##  6        6 May    2014 2014-05-20 00:00:00        2.71               13
    ##  7        7 May    2014 2014-05-21 00:00:00        1.91                8
    ##  8        8 May    2014 2014-05-28 00:00:00        3.7                16
    ##  9        9 June   2014 2014-06-05 00:00:00        2.52               14
    ## 10       10 June   2014 2014-06-11 00:00:00        3.76               18
    ## # ... with 205 more rows, and 8 more variables: plastic_bottles <dbl>,
    ## #   polystyrene <dbl>, cigarette_butts <dbl>, glass_bottles <dbl>,
    ## #   grocery_bags <dbl>, chip_bags <dbl>, sports_balls <int>,
    ## #   homes_powered <dbl>
…
brfss_df
```

    ## # A tibble: 2,125 x 9
    ##     year state location excellent  fair  good  poor very_good
    ##    <int> <chr> <chr>        <dbl> <dbl> <dbl> <dbl>     <dbl>
    ##  1  2002 AK    Anchora~      27.9   8.6  23.8   5.9      33.7
    ##  2  2002 AL    Jeffers~      18.5  12.1  32.7   5.9      30.9
    ##  3  2002 AR    Pulaski~      24.1  12.5  29.9   4.2      29.3
    ##  4  2002 AZ    Maricop~      21.6  10.3  26.9   4.6      36.6
    ##  5  2002 AZ    Pima Co~      26.6   7.5  31.9   3.9      30.1
    ##  6  2002 CA    Los Ang~      22.7  14.3  28.7   4.5      29.8
    ##  7  2002 CO    Adams C~      21.2  14.4  29     4.2      31.2
    ##  8  2002 CO    Arapaho~      25.5   8    29.3   2.1      35.2
    ##  9  2002 CO    Denver ~      22.2  11.1  36.6   3        27.1
    ## 10  2002 CO    Jeffers~      23.4  11.4  26.3   2.4      36.6
    ## # ... with 2,115 more rows, and 1 more variable: prop_great_health <dbl>
…
Using the count(), we can see how frequently each state appears in the dataset. New Jersey is the most observed state with 146 observations.

``` r
length(unique(brfss_df$state))
```

    ## [1] 51

``` r
count(brfss_df, brfss_df$state) %>% 
  arrange(desc(n))
```

    ## # A tibble: 51 x 2
    ##    `brfss_df$state`     n
    ##    <chr>            <int>
    ##  1 NJ                 146
    ##  2 FL                 122
    ##  3 NC                 115
    ##  4 WA                  97
    ##  5 MD                  90
    ##  6 MA                  79
    ##  7 TX                  71
    ##  8 NY                  65
    ##  9 SC                  63
    ## 10 CO                  59
    ## # ... with 41 more rows
…
